{"events":[{"id":72202,"global_id":"live-ug-news.pantheonsite.io?id=72202","global_id_lineage":["live-ug-news.pantheonsite.io?id=72202"],"author":"35","status":"publish","date":"2021-12-02 16:32:50","date_utc":"2021-12-02 21:32:50","modified":"2021-12-02 16:32:50","modified_utc":"2021-12-02 21:32:50","url":"https:\/\/live-ug-news.pantheonsite.io\/event\/online-one-health-seminar-series-one-health-and-social-environments-linking-non-health-data-to-improve-health-and-why-it-can-be-difficult\/","rest_url":"https:\/\/live-ug-news.pantheonsite.io\/wp-json\/tribe\/events\/v1\/events\/72202","title":"ONLINE: One Health Seminar Series &#8211; One Health and Social Environments: Linking Non-health Data to Improve Health (and Why It Can be Difficult)","description":"<p>The One Health Institute is hosting a seminar series throughout the winter semester. This is an opportunity to listen to and learn from different One Health professionals. The series is virtual and will last one hour. It is free and open to <strong>all<\/strong>; you <strong>must register<\/strong> for each event you would like to attend.<\/p>\n<p>&#8220;One Health and Social Environments: Linking Non-health Data to Improve Health (and Why It Can be Difficult)&#8221;<br \/>\nLauren Grant<br \/>\nAssistant Professor | Department of Population Medicine<br \/>\nOntario Veterinary College | University of Guelph<\/p>\n<p><a href=\"https:\/\/onehealth.uoguelph.ca\/winter-2022-one-health-seminar-series\/\">Learn more online<\/a>.<\/p>","excerpt":"","slug":"online-one-health-seminar-series-one-health-and-social-environments-linking-non-health-data-to-improve-health-and-why-it-can-be-difficult","image":{"url":"https:\/\/live-ug-news.pantheonsite.io\/wp-content\/uploads\/2021\/12\/Lauren-Grant-e1638480661308.png","id":72203,"extension":"png","width":1067,"height":600,"sizes":{"thumbnail":{"width":150,"height":84,"mime-type":"image\/png","url":"https:\/\/live-ug-news.pantheonsite.io\/wp-content\/uploads\/2021\/12\/Lauren-Grant-150x84.png"},"medium":{"width":500,"height":281,"mime-type":"image\/png","url":"https:\/\/live-ug-news.pantheonsite.io\/wp-content\/uploads\/2021\/12\/Lauren-Grant-500x281.png"},"medium_large":{"width":768,"height":432,"mime-type":"image\/png","url":"https:\/\/live-ug-news.pantheonsite.io\/wp-content\/uploads\/2021\/12\/Lauren-Grant-768x432.png"},"large":{"width":1000,"height":563,"mime-type":"image\/png","url":"https:\/\/live-ug-news.pantheonsite.io\/wp-content\/uploads\/2021\/12\/Lauren-Grant-1000x563.png"},"1536x1536":{"width":1536,"height":864,"mime-type":"image\/png","url":"https:\/\/live-ug-news.pantheonsite.io\/wp-content\/uploads\/2021\/12\/Lauren-Grant-1536x864.png"},"2048x2048":{"width":1920,"height":1080,"mime":"image\/png","url":"https:\/\/live-ug-news.pantheonsite.io\/wp-content\/uploads\/2021\/12\/Lauren-Grant.png"},"post-thumbnail":{"width":450,"height":300,"mime-type":"image\/png","url":"https:\/\/live-ug-news.pantheonsite.io\/wp-content\/uploads\/2021\/12\/Lauren-Grant-450x300.png"},"blurred_preview":{"width":40,"height":23,"mime-type":"image\/png","url":"https:\/\/live-ug-news.pantheonsite.io\/wp-content\/uploads\/2021\/12\/Lauren-Grant-40x23.png"},"related_posts_thumb":{"width":400,"height":266,"mime-type":"image\/png","url":"https:\/\/live-ug-news.pantheonsite.io\/wp-content\/uploads\/2021\/12\/Lauren-Grant-400x266.png"},"hp_feature":{"width":1025,"height":515,"mime-type":"image\/png","url":"https:\/\/live-ug-news.pantheonsite.io\/wp-content\/uploads\/2021\/12\/Lauren-Grant-1025x515.png"},"hp_square":{"width":250,"height":250,"mime-type":"image\/png","url":"https:\/\/live-ug-news.pantheonsite.io\/wp-content\/uploads\/2021\/12\/Lauren-Grant-250x250.png"},"hero_image":{"width":1370,"height":600,"mime-type":"image\/png","url":"https:\/\/live-ug-news.pantheonsite.io\/wp-content\/uploads\/2021\/12\/Lauren-Grant-1370x600.png"},"rta_thumb_left_center_384x200":{"width":384,"height":200,"mime-type":"image\/png","url":"https:\/\/live-ug-news.pantheonsite.io\/wp-content\/uploads\/2021\/12\/Lauren-Grant-384x200.png"},"rta_thumb_center_center_50x50":{"width":50,"height":50,"mime-type":"image\/png","url":"https:\/\/live-ug-news.pantheonsite.io\/wp-content\/uploads\/2021\/12\/Lauren-Grant-50x50.png"},"yarpp-thumbnail":{"width":120,"height":120,"mime-type":"image\/png","url":"https:\/\/live-ug-news.pantheonsite.io\/wp-content\/uploads\/2021\/12\/Lauren-Grant-120x120.png"}}},"all_day":false,"start_date":"2022-01-27 13:00:00","start_date_details":{"year":"2022","month":"01","day":"27","hour":"13","minutes":"00","seconds":"00"},"end_date":"2022-01-27 14:00:00","end_date_details":{"year":"2022","month":"01","day":"27","hour":"14","minutes":"00","seconds":"00"},"utc_start_date":"2022-01-27 18:00:00","utc_start_date_details":{"year":"2022","month":"01","day":"27","hour":"18","minutes":"00","seconds":"00"},"utc_end_date":"2022-01-27 19:00:00","utc_end_date_details":{"year":"2022","month":"01","day":"27","hour":"19","minutes":"00","seconds":"00"},"timezone":"America\/Toronto","timezone_abbr":"EST","cost":"","cost_details":{"currency_symbol":"","currency_position":"prefix","values":[]},"website":"https:\/\/onehealth.uoguelph.ca\/winter-2022-one-health-seminar-series\/","show_map":false,"show_map_link":false,"hide_from_listings":false,"sticky":false,"featured":false,"categories":[{"name":"Homepage","slug":"homepage-event","term_group":0,"term_taxonomy_id":21,"taxonomy":"tribe_events_cat","description":"","parent":0,"count":1693,"filter":"raw","id":21,"urls":{"self":"https:\/\/live-ug-news.pantheonsite.io\/wp-json\/tribe\/events\/v1\/categories\/21","collection":"https:\/\/live-ug-news.pantheonsite.io\/wp-json\/tribe\/events\/v1\/categories"}},{"name":"Intranet Events","slug":"intranet-events","term_group":0,"term_taxonomy_id":130,"taxonomy":"tribe_events_cat","description":"","parent":0,"count":1384,"filter":"raw","id":130,"urls":{"self":"https:\/\/live-ug-news.pantheonsite.io\/wp-json\/tribe\/events\/v1\/categories\/130","collection":"https:\/\/live-ug-news.pantheonsite.io\/wp-json\/tribe\/events\/v1\/categories"}}],"tags":[],"venue":{"id":43410,"author":"21","status":"publish","date":"2019-05-02 13:05:30","date_utc":"2019-05-02 17:05:30","modified":"2019-05-02 13:05:30","modified_utc":"2019-05-02 17:05:30","url":"https:\/\/live-ug-news.pantheonsite.io\/venue\/43410\/","slug":"43410","country":"Canada","province":"Ontario","stateprovince":"Ontario","geo_lat":51.253775,"geo_lng":-85.323214,"show_map":true,"show_map_link":true,"global_id":"live-ug-news.pantheonsite.io?id=43410","global_id_lineage":["live-ug-news.pantheonsite.io?id=43410"]},"organizer":[]},{"id":74016,"global_id":"live-ug-news.pantheonsite.io?id=74016","global_id_lineage":["live-ug-news.pantheonsite.io?id=74016"],"author":"35","status":"publish","date":"2022-01-21 17:29:07","date_utc":"2022-01-21 22:29:07","modified":"2022-01-21 17:29:07","modified_utc":"2022-01-21 22:29:07","url":"https:\/\/live-ug-news.pantheonsite.io\/event\/online-women-in-sports-analytics-journeys-into-data-science-featuring-erika-munoz\/","rest_url":"https:\/\/live-ug-news.pantheonsite.io\/wp-json\/tribe\/events\/v1\/events\/74016","title":"ONLINE: Women in Sports Analytics \u2013 Journeys into Data Science Featuring Erika Munoz","description":"<p>The Centre for Advancing Responsible and Ethical Artificial Intelligence (CARE-AI) presents: From Physics and Astronomy to Data Scientist in Sports Analytics<\/p>\n<p>With a rapidly evolving usage of analytics in professional sports in North America, MLS, NBA and NHL teams need to innovate to win championships. Erika Munoz will provide her insights on working as a data scientist in this dynamic area for the past few years. She will discuss how her expertise in Physics and Astronomy translated into entering the field of Sports Analytics along with the knowledge she has developed and the type of tools that she routinely uses.<\/p>\n<p>This presentation is part of the CARE-AI, Master of Data Science, and She&#8217;s Got Game Women in Sports Analytics &#8211; Journeys into Data Science Seminars.<\/p>","excerpt":"","slug":"online-women-in-sports-analytics-journeys-into-data-science-featuring-erika-munoz","image":{"url":"https:\/\/live-ug-news.pantheonsite.io\/wp-content\/uploads\/2022\/01\/Women-in-Sports-Analytics-Instagram-Post-1-e1642803937438.png","id":74017,"extension":"png","width":800,"height":800,"sizes":{"medium":{"width":500,"height":500,"mime-type":"image\/png","url":"https:\/\/live-ug-news.pantheonsite.io\/wp-content\/uploads\/2022\/01\/Women-in-Sports-Analytics-Instagram-Post-1-500x500.png"},"large":{"width":1000,"height":1000,"mime-type":"image\/png","url":"https:\/\/live-ug-news.pantheonsite.io\/wp-content\/uploads\/2022\/01\/Women-in-Sports-Analytics-Instagram-Post-1-1000x1000.png"},"thumbnail":{"width":150,"height":150,"mime-type":"image\/png","url":"https:\/\/live-ug-news.pantheonsite.io\/wp-content\/uploads\/2022\/01\/Women-in-Sports-Analytics-Instagram-Post-1-150x150.png"},"medium_large":{"width":768,"height":768,"mime-type":"image\/png","url":"https:\/\/live-ug-news.pantheonsite.io\/wp-content\/uploads\/2022\/01\/Women-in-Sports-Analytics-Instagram-Post-1-768x768.png"},"post-thumbnail":{"width":450,"height":300,"mime-type":"image\/png","url":"https:\/\/live-ug-news.pantheonsite.io\/wp-content\/uploads\/2022\/01\/Women-in-Sports-Analytics-Instagram-Post-1-450x300.png"},"blurred_preview":{"width":40,"height":40,"mime-type":"image\/png","url":"https:\/\/live-ug-news.pantheonsite.io\/wp-content\/uploads\/2022\/01\/Women-in-Sports-Analytics-Instagram-Post-1-40x40.png"},"related_posts_thumb":{"width":400,"height":266,"mime-type":"image\/png","url":"https:\/\/live-ug-news.pantheonsite.io\/wp-content\/uploads\/2022\/01\/Women-in-Sports-Analytics-Instagram-Post-1-400x266.png"},"hp_feature":{"width":1025,"height":515,"mime-type":"image\/png","url":"https:\/\/live-ug-news.pantheonsite.io\/wp-content\/uploads\/2022\/01\/Women-in-Sports-Analytics-Instagram-Post-1-1025x515.png"},"hp_square":{"width":250,"height":250,"mime-type":"image\/png","url":"https:\/\/live-ug-news.pantheonsite.io\/wp-content\/uploads\/2022\/01\/Women-in-Sports-Analytics-Instagram-Post-1-250x250.png"},"hero_image":{"width":1080,"height":600,"mime-type":"image\/png","url":"https:\/\/live-ug-news.pantheonsite.io\/wp-content\/uploads\/2022\/01\/Women-in-Sports-Analytics-Instagram-Post-1-1080x600.png"},"rta_thumb_left_center_384x200":{"width":384,"height":200,"mime-type":"image\/png","url":"https:\/\/live-ug-news.pantheonsite.io\/wp-content\/uploads\/2022\/01\/Women-in-Sports-Analytics-Instagram-Post-1-384x200.png"},"rta_thumb_center_center_50x50":{"width":50,"height":50,"mime-type":"image\/png","url":"https:\/\/live-ug-news.pantheonsite.io\/wp-content\/uploads\/2022\/01\/Women-in-Sports-Analytics-Instagram-Post-1-50x50.png"},"rpwe-thumbnail":{"width":45,"height":45,"mime-type":"image\/png","url":"https:\/\/live-ug-news.pantheonsite.io\/wp-content\/uploads\/2022\/01\/Women-in-Sports-Analytics-Instagram-Post-1-45x45.png"},"yarpp-thumbnail":{"width":120,"height":120,"mime-type":"image\/png","url":"https:\/\/live-ug-news.pantheonsite.io\/wp-content\/uploads\/2022\/01\/Women-in-Sports-Analytics-Instagram-Post-1-120x120.png"}}},"all_day":false,"start_date":"2022-02-03 16:00:00","start_date_details":{"year":"2022","month":"02","day":"03","hour":"16","minutes":"00","seconds":"00"},"end_date":"2022-02-03 17:00:00","end_date_details":{"year":"2022","month":"02","day":"03","hour":"17","minutes":"00","seconds":"00"},"utc_start_date":"2022-02-03 21:00:00","utc_start_date_details":{"year":"2022","month":"02","day":"03","hour":"21","minutes":"00","seconds":"00"},"utc_end_date":"2022-02-03 22:00:00","utc_end_date_details":{"year":"2022","month":"02","day":"03","hour":"22","minutes":"00","seconds":"00"},"timezone":"America\/Toronto","timezone_abbr":"EST","cost":"","cost_details":{"currency_symbol":"","currency_position":"prefix","values":[]},"website":"https:\/\/www.care-ai.ca\/events-2\/","show_map":false,"show_map_link":false,"hide_from_listings":false,"sticky":false,"featured":false,"categories":[{"name":"Homepage","slug":"homepage-event","term_group":0,"term_taxonomy_id":21,"taxonomy":"tribe_events_cat","description":"","parent":0,"count":1693,"filter":"raw","id":21,"urls":{"self":"https:\/\/live-ug-news.pantheonsite.io\/wp-json\/tribe\/events\/v1\/categories\/21","collection":"https:\/\/live-ug-news.pantheonsite.io\/wp-json\/tribe\/events\/v1\/categories"}},{"name":"Intranet Events","slug":"intranet-events","term_group":0,"term_taxonomy_id":130,"taxonomy":"tribe_events_cat","description":"","parent":0,"count":1384,"filter":"raw","id":130,"urls":{"self":"https:\/\/live-ug-news.pantheonsite.io\/wp-json\/tribe\/events\/v1\/categories\/130","collection":"https:\/\/live-ug-news.pantheonsite.io\/wp-json\/tribe\/events\/v1\/categories"}}],"tags":[],"venue":{"id":53535,"author":"21","status":"publish","date":"2020-04-15 12:22:23","date_utc":"2020-04-15 16:22:23","modified":"2020-04-15 12:22:23","modified_utc":"2020-04-15 16:22:23","url":"https:\/\/live-ug-news.pantheonsite.io\/venue\/online\/","venue":"ONLINE","slug":"online","country":"Canada","province":"Ontario","stateprovince":"Ontario","geo_lat":51.253775,"geo_lng":-85.323214,"show_map":true,"show_map_link":true,"global_id":"live-ug-news.pantheonsite.io?id=53535","global_id_lineage":["live-ug-news.pantheonsite.io?id=53535"]},"organizer":[]},{"id":70599,"global_id":"live-ug-news.pantheonsite.io?id=70599","global_id_lineage":["live-ug-news.pantheonsite.io?id=70599"],"author":"35","status":"publish","date":"2021-10-26 10:22:09","date_utc":"2021-10-26 14:22:09","modified":"2021-11-29 13:47:10","modified_utc":"2021-11-29 18:47:10","url":"https:\/\/live-ug-news.pantheonsite.io\/event\/online-migration-of-dalit-women-domestic-workers-from-andhra-pradesh-to-the-gulf-countries\/","rest_url":"https:\/\/live-ug-news.pantheonsite.io\/wp-json\/tribe\/events\/v1\/events\/70599","title":"ONLINE: Migration of Dalit Women Domestic Workers from Andhra Pradesh to the Gulf Countries","description":"<p>This webinar will present findings from a study that sought to understand the local forces and challenges that induce women to migrate from villages in India to Gulf countries as domestic workers. Comparing Dalit and non-Dalit women, the study used quantitative and qualitative data to understand changes in socio-economic status of women migrant workers.<\/p>\n<p>Speakers:<\/p>\n<ul>\n<li>Shailaja Menon, Assistant Professor, School of Liberal Studies of Ambedkar University Delhi<\/li>\n<li>Yamanapalli Sreenivasulu, Faculty in the Centre for Economics and Social Studies (CESS) Hyderabad.<\/li>\n<\/ul>\n<p><a href=\"https:\/\/canadaindiaresearch.ca\/events\/2021\/12\/migration-dalit-women-domestic-workers-andhra-pradesh-gulf-countries\">Learn more online<\/a>.<\/p>\n<p>Presented by: Canada India Research Centre for Learning and Engagement (CIRCLE) &amp; Community Engaged Scholarship Institute (CESI)<\/p>","excerpt":"","slug":"online-migration-of-dalit-women-domestic-workers-from-andhra-pradesh-to-the-gulf-countries","image":false,"all_day":false,"start_date":"2022-02-09 09:00:00","start_date_details":{"year":"2022","month":"02","day":"09","hour":"09","minutes":"00","seconds":"00"},"end_date":"2022-02-09 10:00:00","end_date_details":{"year":"2022","month":"02","day":"09","hour":"10","minutes":"00","seconds":"00"},"utc_start_date":"2022-02-09 14:00:00","utc_start_date_details":{"year":"2022","month":"02","day":"09","hour":"14","minutes":"00","seconds":"00"},"utc_end_date":"2022-02-09 15:00:00","utc_end_date_details":{"year":"2022","month":"02","day":"09","hour":"15","minutes":"00","seconds":"00"},"timezone":"America\/Toronto","timezone_abbr":"EST","cost":"","cost_details":{"currency_symbol":"","currency_position":"prefix","values":[]},"website":"https:\/\/canadaindiaresearch.ca\/events\/2021\/12\/migration-dalit-women-domestic-workers-andhra-pradesh-gulf-countries","show_map":false,"show_map_link":false,"hide_from_listings":false,"sticky":false,"featured":false,"categories":[{"name":"Homepage","slug":"homepage-event","term_group":0,"term_taxonomy_id":21,"taxonomy":"tribe_events_cat","description":"","parent":0,"count":1693,"filter":"raw","id":21,"urls":{"self":"https:\/\/live-ug-news.pantheonsite.io\/wp-json\/tribe\/events\/v1\/categories\/21","collection":"https:\/\/live-ug-news.pantheonsite.io\/wp-json\/tribe\/events\/v1\/categories"}},{"name":"Intranet Events","slug":"intranet-events","term_group":0,"term_taxonomy_id":130,"taxonomy":"tribe_events_cat","description":"","parent":0,"count":1384,"filter":"raw","id":130,"urls":{"self":"https:\/\/live-ug-news.pantheonsite.io\/wp-json\/tribe\/events\/v1\/categories\/130","collection":"https:\/\/live-ug-news.pantheonsite.io\/wp-json\/tribe\/events\/v1\/categories"}}],"tags":[],"venue":{"id":53535,"author":"21","status":"publish","date":"2020-04-15 12:22:23","date_utc":"2020-04-15 16:22:23","modified":"2020-04-15 12:22:23","modified_utc":"2020-04-15 16:22:23","url":"https:\/\/live-ug-news.pantheonsite.io\/venue\/online\/","venue":"ONLINE","slug":"online","country":"Canada","province":"Ontario","stateprovince":"Ontario","geo_lat":51.253775,"geo_lng":-85.323214,"show_map":true,"show_map_link":true,"global_id":"live-ug-news.pantheonsite.io?id=53535","global_id_lineage":["live-ug-news.pantheonsite.io?id=53535"]},"organizer":[]}],"rest_url":"https:\/\/live-ug-news.pantheonsite.io\/wp-json\/tribe\/events\/v1\/events\/?page=1&per_page=3&start_date=2022-01-25 00:00:00&end_date=2024-01-26 23:59:59&status=publish","next_rest_url":"https:\/\/live-ug-news.pantheonsite.io\/wp-json\/tribe\/events\/v1\/events\/?per_page=3&start_date=2022-01-25+00%3A00%3A00&end_date=2024-01-26+23%3A59%3A59&status=publish&page=2","total":8,"total_pages":3}
